Reproducible Research: Peer Assessment 1
…
## [1] 10766.19

Shown from the summary statistics above, the mean and median of the total steps by day are approximately the same, slightly over 10,000 steps.

4. What is the average daily activity pattern?

Creating a new variable avg_steps calculating the average steps by the 5 minute interval

avg_steps <- activity_data %>% group_by(interval) %>% summarise(average_steps_by_interval = mean(steps, na.rm = TRUE))

## `summarise()` ungrouping output (override with `.groups` argument)

avg_steps

## # A tibble: 288 x 2
##    interval average_steps_by_interval
##       <int>                     <dbl>
##  1        0                    1.72  
##  2        5                    0.340 
##  3       10                    0.132 
##  4       15                    0.151 
##  5       20                    0.0755
##  6       25                    2.09  
##  7       30                    0.528 
##  8       35                    0.868 
##  9       40                    0     
## 10       45                    1.47  
## #  with 278 more rows
…
library(chron)
activity_data_new <- activity_data_new %>% mutate (day_week =
                            ifelse(is.weekend(activity_data_new$date),
                                   'weekend', 'weekday'))

Making a panel plot containing a time series plot of the 5-minute interval (x-axis) and the average number of steps taken, averaged across all weekday days or weekend days (y-axis).

avg_steps_new <- activity_data_new %>% group_by(day_week, interval) %>%
    summarise(average_steps = mean(steps))

## `summarise()` regrouping output by 'day_week' (override with `.groups` argument)

avg_steps_new

## # A tibble: 576 x 3
## # Groups:   day_week [2]
##    day_week interval average_steps
##    <chr>       <int>         <dbl>
##  1 weekday         0        2.25  
##  2 weekday         5        0.445 
##  3 weekday        10        0.173 
##  4 weekday        15        0.198 
##  5 weekday        20        0.0990
##  6 weekday        25        1.59  
##  7 weekday        30        0.693 
##  8 weekday        35        1.14  
##  9 weekday        40        0     
## 10 weekday        45        1.80  
## #  with 566 more rows
…
