…
```r
avg_steps <- activity_data %>% group_by(interval) %>% summarise(average_steps_by_interval = mean(steps, na.rm = TRUE))
```

```
## `summarise()` ungrouping output (override with `.groups` argument)
```

```r
avg_steps
```

```
## # A tibble: 288 x 2
##    interval average_steps_by_interval
##       <int>                     <dbl>
##  1        0                    1.72  
##  2        5                    0.340 
##  3       10                    0.132 
##  4       15                    0.151 
##  5       20                    0.0755
##  6       25                    2.09  
##  7       30                    0.528 
##  8       35                    0.868 
##  9       40                    0     
## 10       45                    1.47  
## # … with 278 more rows
```
…
```r
avg_steps_new <- activity_data_new %>% group_by(day_week, interval) %>%
    summarise(average_steps = mean(steps))
```

```
## `summarise()` regrouping output by 'day_week' (override with `.groups` argument)
```

```r
avg_steps_new
```

```
## # A tibble: 576 x 3
## # Groups:   day_week [2]
##    day_week interval average_steps
##    <chr>       <int>         <dbl>
##  1 weekday         0        2.25  
##  2 weekday         5        0.445 
##  3 weekday        10        0.173 
##  4 weekday        15        0.198 
##  5 weekday        20        0.0990
##  6 weekday        25        1.59  
##  7 weekday        30        0.693 
##  8 weekday        35        1.14  
##  9 weekday        40        0     
## 10 weekday        45        1.80  
## # … with 566 more rows
```
…
